[
null,
{"id":1,"battlerName":"","characterIndex":0,"characterName":"a","classId":1,"equips":[0,0,0,0,0],"faceIndex":0,"faceName":"walikota","traits":[],"initialLevel":1,"maxLevel":99,"name":"Walikota","nickname":"","note":"","profile":""}
]