{
"autoplayBgm":false,"autoplayBgs":false,"battleback1Name":"","battleback2Name":"","bgm":{"name":"","pan":0,"pitch":100,"volume":90},"bgs":{"name":"","pan":0,"pitch":100,"volume":90},"disableDashing":false,"displayName":"","encounterList":[],"encounterStep":30,"height":10,"note":"","parallaxLoopX":false,"parallaxLoopY":false,"parallaxName":"","parallaxShow":true,"parallaxSx":0,"parallaxSy":0,"scrollType":0,"specifyBattleback":false,"tilesetId":3,"width":11,
"data":[6180,6204,6204,6204,6204,6204,6204,6204,6204,6204,6184,6200,6562,6562,6562,6562,6562,6562,6562,6562,6562,6192,6200,6568,6568,6568,6568,6568,6568,6568,6568,6568,6192,6200,3666,3652,3652,3652,3652,3652,3652,3652,3668,6192,6200,3648,3632,3632,3632,3632,3632,3632,3632,3656,6192,6200,3648,3632,3632,3632,3632,3632,3632,3632,3656,6192,6200,3672,3660,3660,3660,3644,3660,3660,3660,3670,6192,6206,6209,6209,6209,6221,3664,6219,6209,6209,6209,6205,6563,6562,6562,6562,6566,3664,6563,6562,6562,6562,6566,6569,6568,6568,6568,6572,3664,6569,6568,6568,6568,6572,0,0,0,0,0,0,0,0,0,0,0,0,0,3150,0,3438,0,0,0,0,0,0,0,0,0,0,0,3438,0,0,0,3054,0,0,0,0,0,0,0,0,0,0,0,0,0,0,3822,0,0,0,0,0,0,3054,0,0,0,0,0,0,3150,0,0,0,0,0,0,0,0,0,0,0,0,0,0,0,0,0,0,0,0,0,0,0,0,0,0,0,0,3150,0,0,0,0,0,0,0,0,3147,0,0,3146,0,0,0,0,0,3146,0,0,0,0,0,0,0,0,0,0,0,0,0,0,0,0,0,0,0,0,0,228,0,0,0,0,0,0,0,0,0,0,236,0,0,0,0,0,0,0,0,0,0,0,0,0,0,0,0,0,0,0,0,0,0,0,0,0,0,0,0,0,0,0,0,0,0,0,0,0,0,0,0,0,0,0,0,0,0,0,0,0,0,0,0,0,0,0,0,0,0,0,0,0,0,0,0,0,0,0,0,0,0,0,0,0,0,0,0,0,0,0,0,0,0,0,0,0,0,0,0,0,0,0,0,0,228,0,228,193,0,229,0,0,0,236,0,0,0,0,0,0,237,0,0,0,210,219,219,0,0,0,0,86,56,0,0,0,0,0,0,0,0,0,94,0,0,0,211,203,0,0,0,223,0,0,0,0,0,0,0,0,0,0,0,0,0,0,0,0,0,0,0,0,0,0,0,0,0,0,0,0,0,0,0,0,0,0,0,0,0,0,0,0,0,0,0,0,0,0,0,0,0,0,0,0,0,0,0,0,0,0,0,0,0,0,0,0,0,0,0,0,0,0,0,0,0,0,0,0,0,0,0,0,0,0,5,0,0,0,0,0,0,0,0,0,0,5,0,0,0,0,0,0,0,0,0,0,5,0,0,0,0,0,0,0,0,0,0,5,0,0,0,0,0,0,0,0,0,0,0,0,0,0,0,0,0,0,0,0,0,0,0,0,0,5,0,0,0,0,0,0,0,0,0,0,5,0,0,0,0,0,0,0,0,0,0,0,0,0,0,0,0,0,0,0,0,0,0,0,0,0,0,0,0,0,0,0,0,0,0,0,0,0,0,0,0,0,0,0,0,0,0,0,0,0,0,0,0,0,0,0,0,0,0,0,0,0,0,0,0,0,0,0,0,0,0,0,0,0,0,0,0,0,0,0,0,0,0,0,0,0,0,0,0,0,0,0,0,0,0,0,0,0,0,0,0,0,0,0,0,0,0,0,0,0,0,0,0,0,0,0],
"events":[
null,
{"id":1,"name":"EV001","note":"","pages":[{"conditions":{"actorId":1,"actorValid":false,"itemId":1,"itemValid":false,"selfSwitchCh":"A","selfSwitchValid":false,"switch1Id":1,"switch1Valid":false,"switch2Id":1,"switch2Valid":false,"variableId":1,"variableValid":false,"variableValue":0},"directionFix":false,"image":{"characterIndex":0,"characterName":"","direction":2,"pattern":0,"tileId":0},"list":[{"code":250,"indent":0,"parameters":[{"name":"Move1","pan":0,"pitch":100,"volume":90}]},{"code":201,"indent":0,"parameters":[0,4,14,4,2,0]},{"code":0,"indent":0,"parameters":[]}],"moveFrequency":3,"moveRoute":{"list":[{"code":0,"parameters":[]}],"repeat":true,"skippable":false,"wait":false},"moveSpeed":3,"moveType":0,"priorityType":0,"stepAnime":false,"through":false,"trigger":1,"walkAnime":true}],"x":5,"y":9},
{"id":2,"name":"Arkeolog","note":"","pages":[{"conditions":{"actorId":1,"actorValid":false,"itemId":1,"itemValid":false,"selfSwitchCh":"A","selfSwitchValid":false,"switch1Id":1,"switch1Valid":false,"switch2Id":1,"switch2Valid":false,"variableId":1,"variableValid":false,"variableValue":0},"directionFix":false,"image":{"tileId":0,"characterName":"Actor3","direction":2,"pattern":1,"characterIndex":6},"list":[{"code":111,"indent":0,"parameters":[2,"A",0]},{"code":111,"indent":1,"parameters":[1,21,0,1,0]},{"code":101,"indent":2,"parameters":["Actor3",6,1,2]},{"code":401,"indent":2,"parameters":["Arkeolog :"]},{"code":401,"indent":2,"parameters":[""]},{"code":401,"indent":2,"parameters":["Anda menemukannya."]},{"code":401,"indent":2,"parameters":["Terimakasih banyak."]},{"code":101,"indent":2,"parameters":["Actor3",6,1,2]},{"code":401,"indent":2,"parameters":["Arkeolog :"]},{"code":401,"indent":2,"parameters":[""]},{"code":401,"indent":2,"parameters":["Ini dariku. Terimalah."]},{"code":249,"indent":2,"parameters":[{"name":"Fanfare1","volume":20,"pitch":100,"pan":0}]},{"code":212,"indent":2,"parameters":[2,120,false]},{"code":101,"indent":2,"parameters":["",0,2,1]},{"code":401,"indent":2,"parameters":["Anda mendapatkan satu batu bata (+1)!"]},{"code":126,"indent":2,"parameters":[3,0,0,1]},{"code":111,"indent":2,"parameters":[1,19,0,0,0]},{"code":122,"indent":3,"parameters":[19,19,0,0,1]},{"code":0,"indent":3,"parameters":[]},{"code":411,"indent":2,"parameters":[]},{"code":111,"indent":3,"parameters":[1,19,0,1,0]},{"code":122,"indent":4,"parameters":[19,19,0,0,2]},{"code":0,"indent":4,"parameters":[]},{"code":411,"indent":3,"parameters":[]},{"code":111,"indent":4,"parameters":[1,19,0,2,0]},{"code":122,"indent":5,"parameters":[19,19,0,0,3]},{"code":101,"indent":5,"parameters":["",0,1,1]},{"code":401,"indent":5,"parameters":["Anda dapat menukarkan tiga batu bata dengan sebuah"]},{"code":401,"indent":5,"parameters":["sketsa bandara kepada pilot di kota."]},{"code":121,"indent":5,"parameters":[20,20,0]},{"code":0,"indent":5,"parameters":[]},{"code":412,"indent":4,"parameters":[]},{"code":0,"indent":4,"parameters":[]},{"code":412,"indent":3,"parameters":[]},{"code":0,"indent":3,"parameters":[]},{"code":412,"indent":2,"parameters":[]},{"code":0,"indent":2,"parameters":[]},{"code":411,"indent":1,"parameters":[]},{"code":101,"indent":2,"parameters":["Actor3",6,1,2]},{"code":401,"indent":2,"parameters":["Arkeolog :"]},{"code":401,"indent":2,"parameters":[""]},{"code":401,"indent":2,"parameters":["Bukunya terdapat di dalam goa yang penuh "]},{"code":401,"indent":2,"parameters":["gas beracun. Hati-hati."]},{"code":0,"indent":2,"parameters":[]},{"code":412,"indent":1,"parameters":[]},{"code":0,"indent":1,"parameters":[]},{"code":411,"indent":0,"parameters":[]},{"code":101,"indent":1,"parameters":["Actor3",6,1,2]},{"code":401,"indent":1,"parameters":["Arkeolog :"]},{"code":401,"indent":1,"parameters":[""]},{"code":401,"indent":1,"parameters":["Hoo... selamat datang, Walikota."]},{"code":101,"indent":1,"parameters":["walikota",0,1,2]},{"code":401,"indent":1,"parameters":["Walikota :"]},{"code":401,"indent":1,"parameters":[""]},{"code":401,"indent":1,"parameters":["Bagaimana kabarmu, Nona?"]},{"code":101,"indent":1,"parameters":["Actor3",6,1,2]},{"code":401,"indent":1,"parameters":["Arkeolog :"]},{"code":401,"indent":1,"parameters":[""]},{"code":401,"indent":1,"parameters":["Hmm, entahlah... Gempa kemarin itu tampak"]},{"code":401,"indent":1,"parameters":["begitu asli..."]},{"code":213,"indent":1,"parameters":[-1,2,false]},{"code":101,"indent":1,"parameters":["walikota",0,1,2]},{"code":401,"indent":1,"parameters":["Walikota :"]},{"code":401,"indent":1,"parameters":[""]},{"code":401,"indent":1,"parameters":["Bukannya memang asli?"]},{"code":101,"indent":1,"parameters":["Actor3",6,1,2]},{"code":401,"indent":1,"parameters":["Arkeolog :"]},{"code":401,"indent":1,"parameters":[""]},{"code":401,"indent":1,"parameters":["Maksudku... Mungkin gunung east akan"]},{"code":401,"indent":1,"parameters":["kembali menyapa semuanya."]},{"code":101,"indent":1,"parameters":["walikota",0,1,2]},{"code":401,"indent":1,"parameters":["Walikota :"]},{"code":401,"indent":1,"parameters":[""]},{"code":401,"indent":1,"parameters":["Kalau masalah itu akan ku sampaikan pada"]},{"code":401,"indent":1,"parameters":["badan penanggulangan bencana."]},{"code":213,"indent":1,"parameters":[2,7,false]},{"code":101,"indent":1,"parameters":["Actor3",6,1,2]},{"code":401,"indent":1,"parameters":["Arkeolog :"]},{"code":401,"indent":1,"parameters":[""]},{"code":401,"indent":1,"parameters":["Benar-benar."]},{"code":401,"indent":1,"parameters":["Aku... juga tidak menemukan bukunya."]},{"code":101,"indent":1,"parameters":["walikota",0,1,2]},{"code":401,"indent":1,"parameters":["Walikota :"]},{"code":401,"indent":1,"parameters":[""]},{"code":401,"indent":1,"parameters":["Buku?"]},{"code":101,"indent":1,"parameters":["Actor3",6,1,2]},{"code":401,"indent":1,"parameters":["Arkeolog :"]},{"code":401,"indent":1,"parameters":[""]},{"code":401,"indent":1,"parameters":["Buku sejarah east side yang seharusnya ada"]},{"code":401,"indent":1,"parameters":["di dalam goa itu."]},{"code":101,"indent":1,"parameters":["walikota",0,1,2]},{"code":401,"indent":1,"parameters":["Walikota :"]},{"code":401,"indent":1,"parameters":[""]},{"code":401,"indent":1,"parameters":["Apa perlu aku carikan?"]},{"code":101,"indent":1,"parameters":["Actor3",6,1,2]},{"code":401,"indent":1,"parameters":["Arkeolog :"]},{"code":401,"indent":1,"parameters":[""]},{"code":401,"indent":1,"parameters":["Kalau kau tidak keberatan, Tuan."]},{"code":101,"indent":1,"parameters":["walikota",0,1,2]},{"code":401,"indent":1,"parameters":["Walikota :"]},{"code":401,"indent":1,"parameters":[""]},{"code":401,"indent":1,"parameters":["Baiklah."]},{"code":101,"indent":1,"parameters":["Actor3",6,1,2]},{"code":401,"indent":1,"parameters":["Arkeolog :"]},{"code":401,"indent":1,"parameters":[""]},{"code":401,"indent":1,"parameters":["Oh ya, jangan lupa pakai masker ini."]},{"code":401,"indent":1,"parameters":["Di sana banyak gas beracun."]},{"code":250,"indent":1,"parameters":[{"name":"Ice1","volume":20,"pitch":100,"pan":0}]},{"code":101,"indent":1,"parameters":["",0,1,1]},{"code":401,"indent":1,"parameters":["Anda mendapatkan masker gas!"]},{"code":122,"indent":1,"parameters":[20,20,0,0,1]},{"code":121,"indent":1,"parameters":[19,19,0]},{"code":123,"indent":1,"parameters":["A",0]},{"code":0,"indent":1,"parameters":[]},{"code":412,"indent":0,"parameters":[]},{"code":0,"indent":0,"parameters":[]}],"moveFrequency":3,"moveRoute":{"list":[{"code":1,"indent":null},{"code":15,"parameters":[15],"indent":null},{"code":1,"indent":null},{"code":15,"parameters":[15],"indent":null},{"code":17,"indent":null},{"code":15,"parameters":[15],"indent":null},{"code":18,"indent":null},{"code":15,"parameters":[15],"indent":null},{"code":19,"indent":null},{"code":15,"parameters":[15],"indent":null},{"code":4,"indent":null},{"code":15,"parameters":[15],"indent":null},{"code":4,"indent":null},{"code":15,"parameters":[15],"indent":null},{"code":0,"parameters":[]}],"repeat":true,"skippable":false,"wait":false},"moveSpeed":3,"moveType":3,"priorityType":1,"stepAnime":false,"through":false,"trigger":0,"walkAnime":true}],"x":5,"y":3}
]
}