{
"autoplayBgm":false,"autoplayBgs":false,"battleback1Name":"","battleback2Name":"","bgm":{"name":"","pan":0,"pitch":100,"volume":90},"bgs":{"name":"","pan":0,"pitch":100,"volume":90},"disableDashing":false,"displayName":"","encounterList":[],"encounterStep":30,"height":20,"note":"","parallaxLoopX":false,"parallaxLoopY":false,"parallaxName":"","parallaxShow":true,"parallaxSx":0,"parallaxSy":0,"scrollType":0,"specifyBattleback":false,"tilesetId":2,"width":21,
"data":[7664,7664,7664,7664,7664,7664,7664,7664,7664,7664,7664,7664,7664,7664,7664,7664,7664,7664,7664,7664,7664,7668,7692,7692,7692,7672,7664,7668,7692,7692,7692,7692,7692,7692,7692,7692,7692,7692,7692,7692,7692,7672,7688,8050,5219,5222,7704,7692,7702,8050,8050,8050,8050,8050,8050,8050,8050,8050,8050,8050,8050,8050,7680,7688,8056,5225,5228,5219,5218,5222,8056,8056,8056,8056,8056,8056,8056,8056,8056,8056,8056,8056,8056,7680,7688,1624,5507,5506,5225,5224,5228,2850,2852,2898,2884,2900,2850,2836,2836,2836,2836,2836,2836,2852,7680,7688,1640,5513,5512,5507,5506,5510,2832,2840,2904,2892,2902,2832,2816,2816,2816,2816,2816,2816,2840,7680,7688,1648,1632,1633,5513,5512,5516,2832,2818,2836,2836,2836,2817,2816,2816,2816,2816,2816,2816,2840,7680,7688,1656,1640,1552,1641,1641,1642,2832,2816,2816,2816,2816,2816,2816,2816,2816,2816,2816,2816,2840,7680,7688,2858,1648,1563,1649,1649,1650,2832,2816,2816,2816,2816,2816,2816,2816,2816,2816,2816,2816,2840,7680,7688,2848,1656,1563,1657,1657,1658,2832,2816,2816,2816,2816,2816,2820,2844,2844,2844,2844,2844,2841,7680,7688,2833,2836,2836,2836,2836,2836,2817,2816,2816,2816,2816,2816,2840,5219,5218,5218,5218,5222,2848,7680,7688,2832,2816,2816,2816,2816,2816,2816,2816,2816,2816,2816,2816,2840,5225,5224,5224,5224,5228,2848,7680,7688,2832,2816,2816,2816,2816,2816,2816,2816,2816,2816,2816,2816,2840,5507,5506,5506,5506,5510,2848,7680,7688,2856,2844,2844,2824,2820,2844,2844,2824,2816,2816,2816,2816,2840,5513,5512,5512,5512,5516,2848,7680,7688,2898,2884,2900,2832,2840,2898,2900,2832,2816,2816,2816,2816,2818,2836,2836,2836,2836,2836,2842,7680,7688,2880,2864,2888,2832,2840,2880,2888,2832,2816,2816,2816,2816,2816,2816,2816,2816,2816,2816,2840,7680,7688,2904,2892,2902,2856,2854,2904,2902,2856,2844,2824,2820,2844,2844,2844,2844,2844,2844,2844,2854,7680,7694,7697,7697,7697,7697,7697,7697,7697,7697,7709,2832,2840,7707,7697,7697,7697,7697,7697,7697,7697,7693,8051,8050,8050,8050,8050,8050,8050,8050,8050,8054,2832,2840,8051,8050,8050,8050,8050,8050,8050,8050,8054,8057,8056,8056,8056,8056,8056,8056,8056,8056,8060,2832,2840,8057,8056,8056,8056,8056,8056,8056,8056,8060,0,0,0,0,0,0,0,0,0,0,0,0,0,0,0,0,0,0,0,0,0,0,0,0,0,0,0,0,0,0,0,0,0,0,0,0,0,0,0,0,0,0,0,0,0,0,0,0,0,0,0,0,0,0,0,0,0,0,0,0,0,0,0,0,0,0,0,0,0,0,0,0,0,0,0,0,0,0,0,0,0,0,0,0,0,0,0,0,0,0,0,0,3146,0,0,0,3146,0,0,0,0,0,0,0,0,0,0,0,0,0,0,0,0,3136,0,0,0,3136,0,0,0,0,0,0,0,0,0,0,0,0,0,0,0,0,3145,3149,0,3147,3143,0,0,0,0,0,0,0,0,0,0,0,0,0,0,0,0,0,0,0,0,0,0,0,0,0,0,0,0,0,0,0,0,0,0,0,0,0,0,0,0,0,0,0,0,0,0,0,0,0,0,0,0,0,0,0,0,0,0,0,0,0,0,0,3139,3137,3137,3137,3137,3137,3141,0,0,0,0,0,0,0,0,0,0,0,0,0,0,3136,0,0,0,0,0,3136,0,0,0,0,0,0,0,0,0,0,0,0,0,0,3136,0,0,0,0,0,3136,0,0,0,0,0,0,0,0,0,0,0,0,0,0,3136,0,0,0,0,0,3136,0,0,3147,3137,3137,3149,0,3147,3137,3141,0,0,0,0,3136,0,0,0,0,0,3136,0,0,0,0,0,0,0,0,0,3136,0,0,0,0,3136,0,0,0,0,0,3136,0,0,0,0,0,0,0,0,0,3136,0,0,0,0,3145,3137,3149,0,3147,3137,3143,0,0,0,0,0,0,0,0,0,3148,0,0,0,0,0,0,0,0,0,0,0,0,0,0,0,0,0,0,0,0,0,0,0,0,0,0,0,0,0,0,0,0,0,0,0,0,0,0,0,0,0,0,0,0,0,0,0,0,0,0,0,0,0,0,0,0,0,0,0,0,0,0,0,0,0,0,0,0,0,0,0,0,0,0,0,0,0,0,0,0,0,0,0,0,0,0,0,0,0,0,0,0,0,0,0,0,0,0,0,0,0,0,0,0,0,0,0,0,0,0,0,0,0,0,0,0,0,0,0,0,0,0,0,0,0,0,0,0,0,0,0,0,0,0,0,0,0,0,0,0,0,0,0,0,0,0,0,0,0,0,0,0,0,0,0,113,0,0,0,0,0,0,0,0,0,0,0,0,0,0,0,0,0,0,0,113,112,113,121,0,0,0,0,0,0,0,0,0,0,0,0,0,0,0,0,0,112,0,0,113,0,0,0,0,0,0,0,0,0,0,0,0,0,0,0,0,0,0,0,0,121,0,0,0,0,0,0,0,0,0,0,0,0,0,0,0,0,0,0,0,0,0,0,0,101,0,0,0,0,0,0,0,0,0,0,0,0,0,0,0,0,0,0,0,0,101,0,0,0,0,0,0,0,0,0,0,0,0,0,0,0,0,0,0,0,0,0,0,0,0,0,0,0,0,0,0,0,0,0,0,0,0,0,0,0,0,0,0,0,0,0,0,0,0,0,0,0,0,0,0,0,0,0,0,0,0,0,0,0,0,0,0,0,0,0,0,0,0,0,0,0,32,33,0,32,0,0,0,0,0,0,0,0,0,0,0,0,0,0,0,0,0,0,0,0,0,0,0,0,0,0,0,0,0,0,0,0,0,0,0,0,0,0,0,0,0,0,0,0,0,0,0,0,0,0,0,0,0,0,0,0,0,0,0,0,0,0,0,0,0,0,0,0,0,0,0,0,0,0,0,0,0,0,0,0,0,0,0,0,0,0,0,0,0,0,0,0,0,0,0,0,0,0,0,0,0,0,0,0,0,0,0,0,0,0,0,0,0,0,0,0,0,0,0,0,0,0,0,0,0,0,0,0,0,0,0,0,0,0,0,0,0,0,0,0,0,0,0,0,0,0,0,0,0,0,0,0,0,0,0,0,0,0,0,0,0,0,0,0,0,0,0,0,0,0,0,0,0,0,0,0,0,0,0,0,0,0,0,0,0,0,0,0,0,0,0,0,0,0,0,0,0,0,0,0,0,0,0,0,0,0,0,0,0,112,113,0,0,0,0,0,0,0,0,72,0,0,0,0,0,0,0,0,0,112,114,115,113,0,0,80,33,33,0,0,0,91,0,78,78,78,0,91,91,112,114,115,123,122,0,0,92,0,0,0,0,0,99,0,0,0,0,0,0,0,120,115,114,115,114,0,0,0,0,0,0,67,0,0,0,0,0,0,0,0,100,0,120,122,123,122,0,0,93,0,0,0,0,0,0,0,0,0,0,0,0,0,84,0,120,121,120,0,0,94,0,0,0,0,0,0,0,0,0,0,0,0,0,0,0,0,99,91,0,0,94,0,0,0,0,0,0,0,0,0,0,0,0,0,0,0,0,0,0,0,0,101,0,0,0,92,92,0,0,0,0,0,0,0,0,0,0,0,72,0,0,0,99,0,0,0,0,0,0,0,0,0,0,0,0,0,0,0,0,0,0,0,0,99,0,0,0,0,0,0,0,0,0,0,0,0,34,34,0,34,34,0,0,0,0,0,0,0,0,0,0,0,0,0,0,0,0,0,0,68,0,0,0,0,0,109,109,109,0,0,110,110,0,0,0,0,0,0,77,77,0,0,0,0,0,0,109,104,109,0,0,110,110,0,0,0,0,0,0,0,0,0,0,0,0,0,0,109,109,109,0,0,110,110,0,0,0,0,0,0,0,0,0,0,80,80,0,0,0,0,0,0,0,0,0,0,0,0,0,0,0,0,0,0,0,0,0,0,0,0,0,0,0,0,0,0,0,0,0,0,0,0,0,0,0,0,0,0,0,0,0,0,0,0,0,0,0,0,0,0,0,0,0,0,0,0,0,0,0,0,0,0,0,0,0,0,0,0,0,0,0,0,0,0,0,0,0,0,0,0,0,0,0,0,0,0,0,0,0,0,0,0,0,0,0,0,0,0,0,0,0,0,0,0,0,0,0,0,0,0,0,0,0,0,0,0,0,0,0,0,0,0,0,0,0,0,0,0,0,0,0,0,0,0,0,0,0,0,0,0,0,0,0,0,0,5,0,0,0,0,0,5,0,0,0,0,0,0,0,0,0,0,0,0,0,0,5,0,0,0,0,0,5,0,0,0,0,0,0,0,0,0,0,0,0,0,0,5,0,0,0,0,0,5,0,0,0,0,0,0,0,0,0,0,0,0,0,0,5,0,0,0,0,0,0,0,0,0,0,0,0,0,0,0,0,0,0,0,0,5,0,0,0,0,0,0,0,0,0,0,0,0,0,0,0,0,0,0,0,0,5,0,0,0,0,0,0,0,0,0,0,0,0,0,0,0,0,0,0,0,0,5,0,0,0,0,0,0,0,0,0,0,0,0,0,0,0,0,0,0,0,0,5,0,0,0,0,0,0,0,0,0,0,0,0,0,0,0,0,0,5,0,0,5,0,0,0,0,0,0,0,0,0,0,0,0,0,0,0,0,0,5,0,0,5,0,0,0,0,0,0,0,0,0,0,0,0,0,0,0,0,0,5,0,0,5,0,0,0,0,0,0,0,0,0,0,0,0,0,0,0,0,0,0,0,0,5,0,0,0,0,0,0,0,0,0,0,0,0,0,0,0,0,0,0,0,0,5,0,0,0,0,0,0,0,0,0,0,0,0,0,0,0,0,0,0,0,0,0,0,0,0,0,0,0,0,0,0,0,0,0,0,0,0,0,0,0,0,0,0,0,0,0,0,0,0,0,0,5,0,0,0,0,0,0,0,0,0,0,0,0,0,0,0,0,0,0,0,0,5,0,0,0,0,0,0,0,0,0,0,0,0,0,0,0,0,0,0,0,0,0,0,0,0,0,0,0,0,0,0,0,0,0,0,0,0,0,0,0,0,0,0,0,0,0,0,0,0,0,0,0,0,0,0,0,0,0,0,0,0,0,0,0,0,0,0,0,0,0,0,0,0,0,0,0,0,0,0,0,0,0,0,0,0,0,0,0,0,0,0,0,0,0,0,0,0,0,0,0,0,0,0,0,0,0,0,0,0,0,0,0,0,0,0,0,0,0,0,0,0,0,0,0,0,0,0,0,0,0,0,0,0,0,0,0,0,0,0,0,0,0,0,0,0,0,0,0,0,0,0,0,0,0,0,0,0,0,0,0,0,0,0,0,0,0,0,0,0,0,0,0,0,0,0,0,0,0,0,0,0,0,0,0,0,0,0,0,0,0,0,0,0,0,0,0,0,0,0,0,0,0,0,0,0,0,0,0,0,0,0,0,0,0,0,0,0,0,0,0,0,0,0,0,0,0,0,0,0,0,0,0,0,0,0,0,0,0,0,0,0,0,0,0,0,0,0,0,0,0,0,0,0,0,0,0,0,0,0,0,0,0,0,0,0,0,0,0,0,0,0,0,0,0,0,0,0,0,0,0,0,0,0,0,0,0,0,0,0,0,0,0,0,0,0,0,0,0,0,0,0,0,0,0,0,0,0,0,0,0,0,0,0,0,0,0,0,0,0,0,0,0,0,0,0,0,0,0,0,0,0,0,0,0,0,0,0,0,0,0,0,0,0,0,0,0,0,0,0,0,0,0,0,0,0,0,0,0,0,0,0,0,0,0,0,0,0,0,0,0,0,0,0,0,0,0,0,0,0,0,0,0,0,0,0,0,0,0,0,0,0,0,0,0,0,0,0,0,0,0,0,0,0,0,0,0,0,0,0,0,0,0,0,0,0,0,0,0,0,0,0,0,0,0,0,0,0,0,0,0,0],
"events":[
null,
{"id":1,"name":"EV001","note":"","pages":[{"conditions":{"actorId":1,"actorValid":false,"itemId":1,"itemValid":false,"selfSwitchCh":"A","selfSwitchValid":false,"switch1Id":1,"switch1Valid":false,"switch2Id":1,"switch2Valid":false,"variableId":1,"variableValid":false,"variableValue":0},"directionFix":false,"image":{"characterIndex":0,"characterName":"","direction":2,"pattern":0,"tileId":0},"list":[{"code":250,"indent":0,"parameters":[{"name":"Move1","pan":0,"pitch":100,"volume":90}]},{"code":245,"indent":0,"parameters":[{"name":"","volume":90,"pitch":100,"pan":0}]},{"code":241,"indent":0,"parameters":[{"name":"Field2","volume":25,"pitch":100,"pan":0}]},{"code":201,"indent":0,"parameters":[0,1,16,18,2,0]},{"code":0,"indent":0,"parameters":[]}],"moveFrequency":3,"moveRoute":{"list":[{"code":0,"parameters":[]}],"repeat":true,"skippable":false,"wait":false},"moveSpeed":3,"moveType":0,"priorityType":0,"stepAnime":false,"through":false,"trigger":1,"walkAnime":true}],"x":11,"y":19},
{"id":2,"name":"EV002","note":"","pages":[{"conditions":{"actorId":1,"actorValid":false,"itemId":1,"itemValid":false,"selfSwitchCh":"A","selfSwitchValid":false,"switch1Id":1,"switch1Valid":false,"switch2Id":1,"switch2Valid":false,"variableId":1,"variableValid":false,"variableValue":0},"directionFix":false,"image":{"tileId":0,"characterName":"Nature","direction":2,"pattern":1,"characterIndex":3},"list":[{"code":101,"indent":0,"parameters":["Nature",3,1,2]},{"code":401,"indent":0,"parameters":["Hiii!"]},{"code":0,"indent":0,"parameters":[]}],"moveFrequency":3,"moveRoute":{"list":[{"code":0,"parameters":[]}],"repeat":true,"skippable":false,"wait":false},"moveSpeed":4,"moveType":1,"priorityType":1,"stepAnime":false,"through":false,"trigger":0,"walkAnime":true}],"x":9,"y":10},
{"id":3,"name":"EV003","note":"","pages":[{"conditions":{"actorId":1,"actorValid":false,"itemId":1,"itemValid":false,"selfSwitchCh":"A","selfSwitchValid":false,"switch1Id":1,"switch1Valid":false,"switch2Id":1,"switch2Valid":false,"variableId":1,"variableValid":false,"variableValue":0},"directionFix":false,"image":{"characterIndex":0,"characterName":"","direction":2,"pattern":0,"tileId":0},"list":[{"code":250,"indent":0,"parameters":[{"name":"Move1","pan":0,"pitch":100,"volume":90}]},{"code":245,"indent":0,"parameters":[{"name":"","volume":90,"pitch":100,"pan":0}]},{"code":241,"indent":0,"parameters":[{"name":"Field2","volume":25,"pitch":100,"pan":0}]},{"code":201,"indent":0,"parameters":[0,1,16,18,2,0]},{"code":0,"indent":0,"parameters":[]}],"moveFrequency":3,"moveRoute":{"list":[{"code":0,"parameters":[]}],"repeat":true,"skippable":false,"wait":false},"moveSpeed":3,"moveType":0,"priorityType":0,"stepAnime":false,"through":false,"trigger":1,"walkAnime":true}],"x":10,"y":19},
{"id":4,"name":"EV004","note":"","pages":[{"conditions":{"actorId":1,"actorValid":false,"itemId":1,"itemValid":false,"selfSwitchCh":"A","selfSwitchValid":false,"switch1Id":12,"switch1Valid":true,"switch2Id":1,"switch2Valid":false,"variableId":1,"variableValid":false,"variableValue":0},"directionFix":false,"image":{"tileId":0,"characterName":"Nature","direction":2,"pattern":1,"characterIndex":2},"list":[{"code":111,"indent":0,"parameters":[0,12,0]},{"code":101,"indent":1,"parameters":["",0,1,1]},{"code":401,"indent":1,"parameters":["Ayam ditangkap (+1)!"]},{"code":123,"indent":1,"parameters":["A",0]},{"code":111,"indent":1,"parameters":[1,13,0,0,0]},{"code":122,"indent":2,"parameters":[13,13,0,0,1]},{"code":0,"indent":2,"parameters":[]},{"code":411,"indent":1,"parameters":[]},{"code":111,"indent":2,"parameters":[1,13,0,1,0]},{"code":122,"indent":3,"parameters":[13,13,0,0,2]},{"code":0,"indent":3,"parameters":[]},{"code":411,"indent":2,"parameters":[]},{"code":111,"indent":3,"parameters":[1,13,0,2,0]},{"code":122,"indent":4,"parameters":[13,13,0,0,3]},{"code":0,"indent":4,"parameters":[]},{"code":411,"indent":3,"parameters":[]},{"code":111,"indent":4,"parameters":[1,13,0,3,0]},{"code":122,"indent":5,"parameters":[13,13,0,0,4]},{"code":0,"indent":5,"parameters":[]},{"code":411,"indent":4,"parameters":[]},{"code":111,"indent":5,"parameters":[1,13,0,4,0]},{"code":122,"indent":6,"parameters":[13,13,0,0,5]},{"code":0,"indent":6,"parameters":[]},{"code":411,"indent":5,"parameters":[]},{"code":111,"indent":6,"parameters":[1,13,0,5,0]},{"code":122,"indent":7,"parameters":[13,13,0,0,6]},{"code":101,"indent":7,"parameters":["",0,1,1]},{"code":401,"indent":7,"parameters":["Ayam sudah ditangkap semua!"]},{"code":0,"indent":7,"parameters":[]},{"code":411,"indent":6,"parameters":[]},{"code":0,"indent":7,"parameters":[]},{"code":412,"indent":6,"parameters":[]},{"code":0,"indent":6,"parameters":[]},{"code":412,"indent":5,"parameters":[]},{"code":0,"indent":5,"parameters":[]},{"code":412,"indent":4,"parameters":[]},{"code":0,"indent":4,"parameters":[]},{"code":412,"indent":3,"parameters":[]},{"code":0,"indent":3,"parameters":[]},{"code":412,"indent":2,"parameters":[]},{"code":0,"indent":2,"parameters":[]},{"code":412,"indent":1,"parameters":[]},{"code":0,"indent":1,"parameters":[]},{"code":412,"indent":0,"parameters":[]},{"code":0,"indent":0,"parameters":[]}],"moveFrequency":3,"moveRoute":{"list":[{"code":0,"parameters":[]}],"repeat":true,"skippable":false,"wait":false},"moveSpeed":4,"moveType":1,"priorityType":1,"stepAnime":false,"through":false,"trigger":0,"walkAnime":true},{"conditions":{"actorId":1,"actorValid":false,"itemId":1,"itemValid":false,"selfSwitchCh":"A","selfSwitchValid":true,"switch1Id":1,"switch1Valid":false,"switch2Id":1,"switch2Valid":false,"variableId":1,"variableValid":false,"variableValue":0},"directionFix":false,"image":{"characterIndex":0,"characterName":"","direction":2,"pattern":0,"tileId":0},"list":[{"code":0,"indent":0,"parameters":[]}],"moveFrequency":3,"moveRoute":{"list":[{"code":0,"parameters":[]}],"repeat":true,"skippable":false,"wait":false},"moveSpeed":3,"moveType":0,"priorityType":0,"stepAnime":false,"through":false,"trigger":0,"walkAnime":true}],"x":11,"y":10},
{"id":5,"name":"EV005","note":"","pages":[{"conditions":{"actorId":1,"actorValid":false,"itemId":1,"itemValid":false,"selfSwitchCh":"A","selfSwitchValid":false,"switch1Id":1,"switch1Valid":false,"switch2Id":1,"switch2Valid":false,"variableId":1,"variableValid":false,"variableValue":0},"directionFix":false,"image":{"characterIndex":4,"characterName":"!Door1","direction":2,"pattern":1,"tileId":0},"list":[{"code":250,"indent":0,"parameters":[{"name":"Open1","pan":0,"pitch":100,"volume":90}]},{"code":205,"indent":0,"parameters":[0,{"list":[{"code":17},{"code":15,"parameters":[3]},{"code":18},{"code":15,"parameters":[3]},{"code":19},{"code":37},{"code":0}],"repeat":false,"skippable":false,"wait":true}]},{"code":505,"indent":0,"parameters":[{"code":17}]},{"code":505,"indent":0,"parameters":[{"code":15,"parameters":[3]}]},{"code":505,"indent":0,"parameters":[{"code":18}]},{"code":505,"indent":0,"parameters":[{"code":15,"parameters":[3]}]},{"code":505,"indent":0,"parameters":[{"code":19}]},{"code":505,"indent":0,"parameters":[{"code":37}]},{"code":205,"indent":0,"parameters":[-1,{"list":[{"code":12},{"code":0}],"repeat":false,"skippable":true,"wait":true}]},{"code":505,"indent":0,"parameters":[{"code":12}]},{"code":250,"indent":0,"parameters":[{"name":"Move1","pan":0,"pitch":100,"volume":90}]},{"code":201,"indent":0,"parameters":[0,13,5,7,0,0]},{"code":0,"indent":0,"parameters":[]}],"moveFrequency":3,"moveRoute":{"list":[{"code":0,"parameters":[]}],"repeat":true,"skippable":false,"wait":false},"moveSpeed":3,"moveType":0,"priorityType":1,"stepAnime":false,"through":false,"trigger":1,"walkAnime":false}],"x":5,"y":6},
{"id":6,"name":"EV006","note":"","pages":[{"conditions":{"actorId":1,"actorValid":false,"itemId":1,"itemValid":false,"selfSwitchCh":"A","selfSwitchValid":false,"switch1Id":1,"switch1Valid":false,"switch2Id":1,"switch2Valid":false,"variableId":1,"variableValid":false,"variableValue":0},"directionFix":false,"image":{"characterIndex":0,"characterName":"!Door1","direction":2,"pattern":0,"tileId":0},"list":[{"code":250,"indent":0,"parameters":[{"name":"Open1","pan":0,"pitch":100,"volume":90}]},{"code":205,"indent":0,"parameters":[0,{"list":[{"code":17},{"code":15,"parameters":[3]},{"code":18},{"code":15,"parameters":[3]},{"code":19},{"code":37},{"code":0}],"repeat":false,"skippable":false,"wait":true}]},{"code":505,"indent":0,"parameters":[{"code":17}]},{"code":505,"indent":0,"parameters":[{"code":15,"parameters":[3]}]},{"code":505,"indent":0,"parameters":[{"code":18}]},{"code":505,"indent":0,"parameters":[{"code":15,"parameters":[3]}]},{"code":505,"indent":0,"parameters":[{"code":19}]},{"code":505,"indent":0,"parameters":[{"code":37}]},{"code":205,"indent":0,"parameters":[-1,{"list":[{"code":12},{"code":0}],"repeat":false,"skippable":true,"wait":true}]},{"code":505,"indent":0,"parameters":[{"code":12}]},{"code":250,"indent":0,"parameters":[{"name":"Move1","pan":0,"pitch":100,"volume":90}]},{"code":201,"indent":0,"parameters":[0,14,10,14,0,0]},{"code":0,"indent":0,"parameters":[]}],"moveFrequency":3,"moveRoute":{"list":[{"code":0,"parameters":[]}],"repeat":true,"skippable":false,"wait":false},"moveSpeed":3,"moveType":0,"priorityType":1,"stepAnime":false,"through":false,"trigger":1,"walkAnime":false}],"x":16,"y":13},
{"id":7,"name":"EV007","note":"","pages":[{"conditions":{"actorId":1,"actorValid":false,"itemId":1,"itemValid":false,"selfSwitchCh":"A","selfSwitchValid":false,"switch1Id":1,"switch1Valid":false,"switch2Id":1,"switch2Valid":false,"variableId":1,"variableValid":false,"variableValue":0},"directionFix":false,"image":{"characterIndex":0,"characterName":"","direction":2,"pattern":0,"tileId":0},"list":[{"code":211,"indent":0,"parameters":[0]},{"code":121,"indent":0,"parameters":[2,2,1]},{"code":222,"indent":0,"parameters":[]},{"code":225,"indent":0,"parameters":[6,5,60,false]},{"code":250,"indent":0,"parameters":[{"name":"Siren","volume":90,"pitch":100,"pan":0}]},{"code":250,"indent":0,"parameters":[{"name":"Siren","volume":90,"pitch":100,"pan":0}]},{"code":213,"indent":0,"parameters":[10,1,false]},{"code":213,"indent":0,"parameters":[8,1,false]},{"code":213,"indent":0,"parameters":[9,1,true]},{"code":250,"indent":0,"parameters":[{"name":"Siren","volume":90,"pitch":100,"pan":0}]},{"code":250,"indent":0,"parameters":[{"name":"Siren","volume":90,"pitch":100,"pan":0}]},{"code":101,"indent":0,"parameters":["Actor1",4,1,2]},{"code":401,"indent":0,"parameters":["Pemburu :"]},{"code":401,"indent":0,"parameters":[""]},{"code":401,"indent":0,"parameters":["Ada apa ini?!"]},{"code":250,"indent":0,"parameters":[{"name":"Siren","volume":90,"pitch":100,"pan":0}]},{"code":250,"indent":0,"parameters":[{"name":"Siren","volume":90,"pitch":100,"pan":0}]},{"code":101,"indent":0,"parameters":["People4",0,1,2]},{"code":401,"indent":0,"parameters":["Petani :"]},{"code":401,"indent":0,"parameters":[""]},{"code":401,"indent":0,"parameters":["Oh tidak..."]},{"code":250,"indent":0,"parameters":[{"name":"Siren","volume":90,"pitch":100,"pan":0}]},{"code":250,"indent":0,"parameters":[{"name":"Siren","volume":90,"pitch":100,"pan":0}]},{"code":101,"indent":0,"parameters":["People1",1,0,2]},{"code":401,"indent":0,"parameters":["Anak-anak :"]},{"code":401,"indent":0,"parameters":[""]},{"code":401,"indent":0,"parameters":["Ayah!!! Tolong!!"]},{"code":250,"indent":0,"parameters":[{"name":"Siren","volume":90,"pitch":100,"pan":0}]},{"code":250,"indent":0,"parameters":[{"name":"Siren","volume":90,"pitch":100,"pan":0}]},{"code":221,"indent":0,"parameters":[]},{"code":121,"indent":0,"parameters":[2,2,0]},{"code":123,"indent":0,"parameters":["A",0]},{"code":201,"indent":0,"parameters":[0,7,3,2,4,0]},{"code":211,"indent":0,"parameters":[1]},{"code":0,"indent":0,"parameters":[]}],"moveFrequency":3,"moveRoute":{"list":[{"code":0,"parameters":[]}],"repeat":true,"skippable":false,"wait":false},"moveSpeed":3,"moveType":0,"priorityType":0,"stepAnime":false,"through":false,"trigger":3,"walkAnime":true},{"conditions":{"actorId":1,"actorValid":false,"itemId":1,"itemValid":false,"selfSwitchCh":"A","selfSwitchValid":true,"switch1Id":1,"switch1Valid":false,"switch2Id":1,"switch2Valid":false,"variableId":1,"variableValid":false,"variableValue":0},"directionFix":false,"image":{"characterIndex":0,"characterName":"","direction":2,"pattern":0,"tileId":0},"list":[{"code":0,"indent":0,"parameters":[]}],"moveFrequency":3,"moveRoute":{"list":[{"code":0,"parameters":[]}],"repeat":true,"skippable":false,"wait":false},"moveSpeed":3,"moveType":0,"priorityType":0,"stepAnime":false,"through":false,"trigger":0,"walkAnime":true}],"x":0,"y":0},
{"id":8,"name":"Pemburu","note":"","pages":[{"conditions":{"actorId":1,"actorValid":false,"itemId":1,"itemValid":false,"selfSwitchCh":"A","selfSwitchValid":false,"switch1Id":1,"switch1Valid":false,"switch2Id":1,"switch2Valid":false,"variableId":1,"variableValid":false,"variableValue":0},"directionFix":false,"image":{"tileId":0,"characterName":"Actor1","direction":2,"pattern":1,"characterIndex":4},"list":[{"code":0,"indent":0,"parameters":[]}],"moveFrequency":3,"moveRoute":{"list":[{"code":0,"parameters":[]}],"repeat":true,"skippable":false,"wait":false},"moveSpeed":3,"moveType":0,"priorityType":1,"stepAnime":false,"through":false,"trigger":0,"walkAnime":true},{"conditions":{"actorId":1,"actorValid":false,"itemId":1,"itemValid":false,"selfSwitchCh":"A","selfSwitchValid":false,"switch1Id":2,"switch1Valid":true,"switch2Id":1,"switch2Valid":false,"variableId":1,"variableValid":false,"variableValue":0},"directionFix":false,"image":{"characterIndex":0,"characterName":"","direction":2,"pattern":0,"tileId":0},"list":[{"code":0,"indent":0,"parameters":[]}],"moveFrequency":3,"moveRoute":{"list":[{"code":0,"parameters":[]}],"repeat":true,"skippable":false,"wait":false},"moveSpeed":3,"moveType":0,"priorityType":0,"stepAnime":false,"through":false,"trigger":0,"walkAnime":true}],"x":5,"y":7},
{"id":9,"name":"Petani","note":"","pages":[{"conditions":{"actorId":1,"actorValid":false,"itemId":1,"itemValid":false,"selfSwitchCh":"A","selfSwitchValid":false,"switch1Id":1,"switch1Valid":false,"switch2Id":1,"switch2Valid":false,"variableId":1,"variableValid":false,"variableValue":0},"directionFix":false,"image":{"tileId":0,"characterName":"People4","direction":2,"pattern":1,"characterIndex":0},"list":[{"code":111,"indent":0,"parameters":[2,"A",1]},{"code":101,"indent":1,"parameters":["People4",0,1,2]},{"code":401,"indent":1,"parameters":["Petani :"]},{"code":401,"indent":1,"parameters":[""]},{"code":401,"indent":1,"parameters":["Selamat datang, Bapak Walikota."]},{"code":101,"indent":1,"parameters":["walikota",0,1,2]},{"code":401,"indent":1,"parameters":["Walikota :"]},{"code":401,"indent":1,"parameters":[""]},{"code":401,"indent":1,"parameters":["Bagaimana keadaan desa, Tuan?"]},{"code":101,"indent":1,"parameters":["People4",0,1,2]},{"code":401,"indent":1,"parameters":["Petani :"]},{"code":401,"indent":1,"parameters":[""]},{"code":401,"indent":1,"parameters":["Kami kembali menanam kebutuhan pangan"]},{"code":401,"indent":1,"parameters":["setelah akhirnya mendapatkan bibit dari-"]},{"code":101,"indent":1,"parameters":["People4",0,1,2]},{"code":401,"indent":1,"parameters":["Petani :"]},{"code":401,"indent":1,"parameters":[""]},{"code":401,"indent":1,"parameters":["-kota. Namun, karena gempa beberapa hari"]},{"code":401,"indent":1,"parameters":["yang lalu kami jadi terkendala dengan-"]},{"code":101,"indent":1,"parameters":["People4",0,1,2]},{"code":401,"indent":1,"parameters":["Petani :"]},{"code":401,"indent":1,"parameters":[""]},{"code":401,"indent":1,"parameters":["-hasil laut dan juga peralatan untuk"]},{"code":401,"indent":1,"parameters":["bercocok tanam, Tuan."]},{"code":101,"indent":1,"parameters":["walikota",0,1,2]},{"code":401,"indent":1,"parameters":["Walikota :"]},{"code":401,"indent":1,"parameters":[""]},{"code":401,"indent":1,"parameters":["Kalau begitu ada yang bisa saya bantu?"]},{"code":101,"indent":1,"parameters":["People4",0,1,2]},{"code":401,"indent":1,"parameters":["Petani :"]},{"code":401,"indent":1,"parameters":[""]},{"code":401,"indent":1,"parameters":["Ah, kami membutuhkan bibit tanaman untuk"]},{"code":401,"indent":1,"parameters":["ditanam minggu depan."]},{"code":101,"indent":1,"parameters":["People4",0,1,2]},{"code":401,"indent":1,"parameters":["Petani :"]},{"code":401,"indent":1,"parameters":[""]},{"code":401,"indent":1,"parameters":["Namun, tidak ada yang berani pergi"]},{"code":401,"indent":1,"parameters":["mengambilnya di hutan bagian timur desa."]},{"code":101,"indent":1,"parameters":["walikota",0,1,2]},{"code":401,"indent":1,"parameters":["Walikota :"]},{"code":401,"indent":1,"parameters":[""]},{"code":401,"indent":1,"parameters":["Bagaimana kalau saya yang ambilkan?"]},{"code":101,"indent":1,"parameters":["People4",0,1,2]},{"code":401,"indent":1,"parameters":["Petani :"]},{"code":401,"indent":1,"parameters":[""]},{"code":401,"indent":1,"parameters":["Tidak usah, Walikota! Saya jadi"]},{"code":401,"indent":1,"parameters":["menyusahkan."]},{"code":101,"indent":1,"parameters":["walikota",0,1,2]},{"code":401,"indent":1,"parameters":["Walikota :"]},{"code":401,"indent":1,"parameters":[""]},{"code":401,"indent":1,"parameters":["Tidak apa, Tuan. Ini memang tugas saya"]},{"code":401,"indent":1,"parameters":["sebagai Walikota."]},{"code":101,"indent":1,"parameters":["People4",0,1,2]},{"code":401,"indent":1,"parameters":["Petani :"]},{"code":401,"indent":1,"parameters":[""]},{"code":401,"indent":1,"parameters":["Kalau begitu tolong ambilkan dua bibit"]},{"code":401,"indent":1,"parameters":["wortel dan satu bibit kol, Tuan."]},{"code":123,"indent":1,"parameters":["A",0]},{"code":121,"indent":1,"parameters":[16,16,0]},{"code":0,"indent":1,"parameters":[]},{"code":411,"indent":0,"parameters":[]},{"code":111,"indent":1,"parameters":[0,16,0]},{"code":111,"indent":2,"parameters":[1,14,0,3,0]},{"code":213,"indent":3,"parameters":[9,3,false]},{"code":101,"indent":3,"parameters":["People4",0,1,2]},{"code":401,"indent":3,"parameters":["Petani :"]},{"code":401,"indent":3,"parameters":[""]},{"code":401,"indent":3,"parameters":["Terimakasih atas bantuannya, Tuan!"]},{"code":101,"indent":3,"parameters":["People4",0,1,2]},{"code":401,"indent":3,"parameters":["Petani :"]},{"code":401,"indent":3,"parameters":[""]},{"code":401,"indent":3,"parameters":["Terimalah hadiah dari saya."]},{"code":249,"indent":3,"parameters":[{"name":"Fanfare1","volume":30,"pitch":100,"pan":0}]},{"code":212,"indent":3,"parameters":[9,120,false]},{"code":101,"indent":3,"parameters":["",0,1,1]},{"code":401,"indent":3,"parameters":["Anda mendapatkan satu kayu (+1)!"]},{"code":126,"indent":3,"parameters":[2,0,0,1]},{"code":121,"indent":3,"parameters":[16,16,1]},{"code":111,"indent":3,"parameters":[1,5,0,0,0]},{"code":122,"indent":4,"parameters":[5,5,0,0,1]},{"code":0,"indent":4,"parameters":[]},{"code":411,"indent":3,"parameters":[]},{"code":111,"indent":4,"parameters":[1,5,0,1,0]},{"code":122,"indent":5,"parameters":[5,5,0,0,2]},{"code":0,"indent":5,"parameters":[]},{"code":411,"indent":4,"parameters":[]},{"code":111,"indent":5,"parameters":[1,5,0,2,0]},{"code":122,"indent":6,"parameters":[5,5,0,0,3]},{"code":101,"indent":6,"parameters":["",0,1,1]},{"code":401,"indent":6,"parameters":["Anda dapat menukarkan 3 kayu dengan kunci goa kepada"]},{"code":401,"indent":6,"parameters":["asisten di kota,"]},{"code":0,"indent":6,"parameters":[]},{"code":412,"indent":5,"parameters":[]},{"code":0,"indent":5,"parameters":[]},{"code":412,"indent":4,"parameters":[]},{"code":0,"indent":4,"parameters":[]},{"code":412,"indent":3,"parameters":[]},{"code":0,"indent":3,"parameters":[]},{"code":411,"indent":2,"parameters":[]},{"code":101,"indent":3,"parameters":["People4",0,1,2]},{"code":401,"indent":3,"parameters":["Petani :"]},{"code":401,"indent":3,"parameters":[""]},{"code":401,"indent":3,"parameters":["Tolong ambilkan dua bibit wortel dan satu"]},{"code":401,"indent":3,"parameters":["bibit kol, Tuan."]},{"code":0,"indent":3,"parameters":[]},{"code":412,"indent":2,"parameters":[]},{"code":0,"indent":2,"parameters":[]},{"code":411,"indent":1,"parameters":[]},{"code":101,"indent":2,"parameters":["People4",0,1,2]},{"code":401,"indent":2,"parameters":["Petani :"]},{"code":401,"indent":2,"parameters":[""]},{"code":401,"indent":2,"parameters":["Terimakasih!"]},{"code":0,"indent":2,"parameters":[]},{"code":412,"indent":1,"parameters":[]},{"code":0,"indent":1,"parameters":[]},{"code":412,"indent":0,"parameters":[]},{"code":0,"indent":0,"parameters":[]}],"moveFrequency":3,"moveRoute":{"list":[{"code":15,"parameters":[10],"indent":null},{"code":4,"indent":null},{"code":15,"parameters":[10],"indent":null},{"code":2,"indent":null},{"code":15,"parameters":[10],"indent":null},{"code":1,"indent":null},{"code":15,"parameters":[10],"indent":null},{"code":1,"indent":null},{"code":15,"parameters":[10],"indent":null},{"code":3,"indent":null},{"code":15,"parameters":[10],"indent":null},{"code":4,"indent":null},{"code":0,"parameters":[]}],"repeat":true,"skippable":false,"wait":false},"moveSpeed":3,"moveType":3,"priorityType":1,"stepAnime":false,"through":false,"trigger":0,"walkAnime":true}],"x":5,"y":15},
{"id":10,"name":"Anak-anak","note":"","pages":[{"conditions":{"actorId":1,"actorValid":false,"itemId":1,"itemValid":false,"selfSwitchCh":"A","selfSwitchValid":false,"switch1Id":1,"switch1Valid":false,"switch2Id":1,"switch2Valid":false,"variableId":1,"variableValid":false,"variableValue":0},"directionFix":false,"image":{"tileId":0,"characterName":"People1","direction":2,"pattern":1,"characterIndex":1},"list":[{"code":111,"indent":0,"parameters":[0,12,0]},{"code":101,"indent":1,"parameters":["People1",1,1,2]},{"code":401,"indent":1,"parameters":["Anak-anak :"]},{"code":401,"indent":1,"parameters":[""]},{"code":401,"indent":1,"parameters":["Apakah sudah, Pak Walikota?"]},{"code":102,"indent":1,"parameters":[["Sudah.","Tidak."],1,0,2,0]},{"code":402,"indent":1,"parameters":[0,"Sudah."]},{"code":111,"indent":2,"parameters":[3,60,1]},{"code":111,"indent":3,"parameters":[1,13,0,6,0]},{"code":221,"indent":4,"parameters":[]},{"code":249,"indent":4,"parameters":[{"name":"Fanfare2","volume":20,"pitch":100,"pan":0}]},{"code":251,"indent":4,"parameters":[]},{"code":212,"indent":4,"parameters":[-1,36,false]},{"code":101,"indent":4,"parameters":["",0,1,1]},{"code":401,"indent":4,"parameters":["Anda berhasil!!"]},{"code":121,"indent":4,"parameters":[12,12,1]},{"code":123,"indent":4,"parameters":["A",0]},{"code":124,"indent":4,"parameters":[1]},{"code":222,"indent":4,"parameters":[]},{"code":0,"indent":4,"parameters":[]},{"code":412,"indent":3,"parameters":[]},{"code":0,"indent":3,"parameters":[]},{"code":412,"indent":2,"parameters":[]},{"code":111,"indent":2,"parameters":[3,0,1]},{"code":111,"indent":3,"parameters":[1,13,0,6,0]},{"code":221,"indent":4,"parameters":[]},{"code":249,"indent":4,"parameters":[{"name":"Fanfare2","volume":20,"pitch":100,"pan":0}]},{"code":251,"indent":4,"parameters":[]},{"code":212,"indent":4,"parameters":[-1,36,false]},{"code":101,"indent":4,"parameters":["",0,1,1]},{"code":401,"indent":4,"parameters":["Anda berhasil!!"]},{"code":121,"indent":4,"parameters":[12,12,1]},{"code":123,"indent":4,"parameters":["A",0]},{"code":124,"indent":4,"parameters":[1]},{"code":222,"indent":4,"parameters":[]},{"code":0,"indent":4,"parameters":[]},{"code":411,"indent":3,"parameters":[]},{"code":353,"indent":4,"parameters":[]},{"code":0,"indent":4,"parameters":[]},{"code":412,"indent":3,"parameters":[]},{"code":0,"indent":3,"parameters":[]},{"code":412,"indent":2,"parameters":[]},{"code":0,"indent":2,"parameters":[]},{"code":402,"indent":1,"parameters":[1,"Tidak."]},{"code":101,"indent":2,"parameters":["People1",1,1,2]},{"code":401,"indent":2,"parameters":["Anak-anak :"]},{"code":401,"indent":2,"parameters":[""]},{"code":401,"indent":2,"parameters":["Semangat, Pak Walikota!"]},{"code":0,"indent":2,"parameters":[]},{"code":404,"indent":1,"parameters":[]},{"code":0,"indent":1,"parameters":[]},{"code":411,"indent":0,"parameters":[]},{"code":101,"indent":1,"parameters":["People1",1,1,2]},{"code":401,"indent":1,"parameters":["Anak-anak :"]},{"code":401,"indent":1,"parameters":[""]},{"code":401,"indent":1,"parameters":["Selamat datang di desa, Pak Walikota!"]},{"code":101,"indent":1,"parameters":["walikota",0,1,2]},{"code":401,"indent":1,"parameters":["Walikota :"]},{"code":401,"indent":1,"parameters":[""]},{"code":401,"indent":1,"parameters":["Apa yang sedang kau lakukan, Nona manis?"]},{"code":101,"indent":1,"parameters":["People1",1,1,2]},{"code":401,"indent":1,"parameters":["Anak-anak :"]},{"code":401,"indent":1,"parameters":[""]},{"code":401,"indent":1,"parameters":["Ayah menyuruhku untuk memasukkan para ayam"]},{"code":401,"indent":1,"parameters":["ke dalam kandang!"]},{"code":101,"indent":1,"parameters":["People1",1,1,2]},{"code":401,"indent":1,"parameters":["Anak-anak :"]},{"code":401,"indent":1,"parameters":[""]},{"code":401,"indent":1,"parameters":["Tapi mereka lincah sekali dan menyusahkan."]},{"code":101,"indent":1,"parameters":["People1",1,1,2]},{"code":401,"indent":1,"parameters":["Anak-anak :"]},{"code":401,"indent":1,"parameters":[""]},{"code":401,"indent":1,"parameters":["Tapi mereka lincah sekali dan menyusahkan."]},{"code":101,"indent":1,"parameters":["walikota",0,1,2]},{"code":401,"indent":1,"parameters":["Walikota :"]},{"code":401,"indent":1,"parameters":[""]},{"code":401,"indent":1,"parameters":["Bagaimana kalau saya bantu?"]},{"code":101,"indent":1,"parameters":["People1",1,1,2]},{"code":401,"indent":1,"parameters":["Anak-anak :"]},{"code":401,"indent":1,"parameters":[""]},{"code":401,"indent":1,"parameters":["Benarkah? Dengan hati, Pak Walikota!"]},{"code":121,"indent":1,"parameters":[12,12,0]},{"code":124,"indent":1,"parameters":[0,60]},{"code":0,"indent":1,"parameters":[]},{"code":412,"indent":0,"parameters":[]},{"code":0,"indent":0,"parameters":[]}],"moveFrequency":3,"moveRoute":{"list":[{"code":0,"parameters":[]}],"repeat":true,"skippable":false,"wait":false},"moveSpeed":3,"moveType":0,"priorityType":1,"stepAnime":false,"through":false,"trigger":0,"walkAnime":true},{"conditions":{"actorId":1,"actorValid":false,"itemId":1,"itemValid":false,"selfSwitchCh":"A","selfSwitchValid":true,"switch1Id":1,"switch1Valid":false,"switch2Id":1,"switch2Valid":false,"variableId":1,"variableValid":false,"variableValue":0},"directionFix":false,"image":{"characterIndex":0,"characterName":"","direction":2,"pattern":0,"tileId":0},"list":[{"code":0,"indent":0,"parameters":[]}],"moveFrequency":3,"moveRoute":{"list":[{"code":0,"parameters":[]}],"repeat":true,"skippable":false,"wait":false},"moveSpeed":3,"moveType":0,"priorityType":0,"stepAnime":false,"through":false,"trigger":0,"walkAnime":true}],"x":16,"y":14},
{"id":11,"name":"EV011","note":"","pages":[{"conditions":{"actorId":1,"actorValid":false,"itemId":1,"itemValid":false,"selfSwitchCh":"A","selfSwitchValid":false,"switch1Id":12,"switch1Valid":true,"switch2Id":1,"switch2Valid":false,"variableId":1,"variableValid":false,"variableValue":0},"directionFix":false,"image":{"tileId":0,"characterName":"Nature","direction":2,"pattern":1,"characterIndex":2},"list":[{"code":111,"indent":0,"parameters":[0,12,0]},{"code":101,"indent":1,"parameters":["",0,1,1]},{"code":401,"indent":1,"parameters":["Ayam ditangkap (+1)!"]},{"code":123,"indent":1,"parameters":["A",0]},{"code":111,"indent":1,"parameters":[1,13,0,0,0]},{"code":122,"indent":2,"parameters":[13,13,0,0,1]},{"code":0,"indent":2,"parameters":[]},{"code":411,"indent":1,"parameters":[]},{"code":111,"indent":2,"parameters":[1,13,0,1,0]},{"code":122,"indent":3,"parameters":[13,13,0,0,2]},{"code":0,"indent":3,"parameters":[]},{"code":411,"indent":2,"parameters":[]},{"code":111,"indent":3,"parameters":[1,13,0,2,0]},{"code":122,"indent":4,"parameters":[13,13,0,0,3]},{"code":0,"indent":4,"parameters":[]},{"code":411,"indent":3,"parameters":[]},{"code":111,"indent":4,"parameters":[1,13,0,3,0]},{"code":122,"indent":5,"parameters":[13,13,0,0,4]},{"code":0,"indent":5,"parameters":[]},{"code":411,"indent":4,"parameters":[]},{"code":111,"indent":5,"parameters":[1,13,0,4,0]},{"code":122,"indent":6,"parameters":[13,13,0,0,5]},{"code":0,"indent":6,"parameters":[]},{"code":411,"indent":5,"parameters":[]},{"code":111,"indent":6,"parameters":[1,13,0,5,0]},{"code":122,"indent":7,"parameters":[13,13,0,0,6]},{"code":101,"indent":7,"parameters":["",0,1,1]},{"code":401,"indent":7,"parameters":["Ayam sudah ditangkap semua!"]},{"code":0,"indent":7,"parameters":[]},{"code":411,"indent":6,"parameters":[]},{"code":0,"indent":7,"parameters":[]},{"code":412,"indent":6,"parameters":[]},{"code":0,"indent":6,"parameters":[]},{"code":412,"indent":5,"parameters":[]},{"code":0,"indent":5,"parameters":[]},{"code":412,"indent":4,"parameters":[]},{"code":0,"indent":4,"parameters":[]},{"code":412,"indent":3,"parameters":[]},{"code":0,"indent":3,"parameters":[]},{"code":412,"indent":2,"parameters":[]},{"code":0,"indent":2,"parameters":[]},{"code":412,"indent":1,"parameters":[]},{"code":0,"indent":1,"parameters":[]},{"code":412,"indent":0,"parameters":[]},{"code":0,"indent":0,"parameters":[]}],"moveFrequency":3,"moveRoute":{"list":[{"code":0,"parameters":[]}],"repeat":true,"skippable":false,"wait":false},"moveSpeed":4,"moveType":1,"priorityType":1,"stepAnime":false,"through":false,"trigger":0,"walkAnime":true},{"conditions":{"actorId":1,"actorValid":false,"itemId":1,"itemValid":false,"selfSwitchCh":"A","selfSwitchValid":true,"switch1Id":1,"switch1Valid":false,"switch2Id":1,"switch2Valid":false,"variableId":1,"variableValid":false,"variableValue":0},"directionFix":false,"image":{"characterIndex":0,"characterName":"","direction":2,"pattern":0,"tileId":0},"list":[{"code":0,"indent":0,"parameters":[]}],"moveFrequency":3,"moveRoute":{"list":[{"code":0,"parameters":[]}],"repeat":true,"skippable":false,"wait":false},"moveSpeed":3,"moveType":0,"priorityType":0,"stepAnime":false,"through":false,"trigger":0,"walkAnime":true}],"x":14,"y":8},
{"id":12,"name":"EV012","note":"","pages":[{"conditions":{"actorId":1,"actorValid":false,"itemId":1,"itemValid":false,"selfSwitchCh":"A","selfSwitchValid":false,"switch1Id":12,"switch1Valid":true,"switch2Id":1,"switch2Valid":false,"variableId":1,"variableValid":false,"variableValue":0},"directionFix":false,"image":{"tileId":0,"characterName":"Nature","direction":2,"pattern":1,"characterIndex":2},"list":[{"code":111,"indent":0,"parameters":[0,12,0]},{"code":101,"indent":1,"parameters":["",0,1,1]},{"code":401,"indent":1,"parameters":["Ayam ditangkap (+1)!"]},{"code":123,"indent":1,"parameters":["A",0]},{"code":111,"indent":1,"parameters":[1,13,0,0,0]},{"code":122,"indent":2,"parameters":[13,13,0,0,1]},{"code":0,"indent":2,"parameters":[]},{"code":411,"indent":1,"parameters":[]},{"code":111,"indent":2,"parameters":[1,13,0,1,0]},{"code":122,"indent":3,"parameters":[13,13,0,0,2]},{"code":0,"indent":3,"parameters":[]},{"code":411,"indent":2,"parameters":[]},{"code":111,"indent":3,"parameters":[1,13,0,2,0]},{"code":122,"indent":4,"parameters":[13,13,0,0,3]},{"code":0,"indent":4,"parameters":[]},{"code":411,"indent":3,"parameters":[]},{"code":111,"indent":4,"parameters":[1,13,0,3,0]},{"code":122,"indent":5,"parameters":[13,13,0,0,4]},{"code":0,"indent":5,"parameters":[]},{"code":411,"indent":4,"parameters":[]},{"code":111,"indent":5,"parameters":[1,13,0,4,0]},{"code":122,"indent":6,"parameters":[13,13,0,0,5]},{"code":0,"indent":6,"parameters":[]},{"code":411,"indent":5,"parameters":[]},{"code":111,"indent":6,"parameters":[1,13,0,5,0]},{"code":122,"indent":7,"parameters":[13,13,0,0,6]},{"code":101,"indent":7,"parameters":["",0,1,1]},{"code":401,"indent":7,"parameters":["Ayam sudah ditangkap semua!"]},{"code":0,"indent":7,"parameters":[]},{"code":411,"indent":6,"parameters":[]},{"code":0,"indent":7,"parameters":[]},{"code":412,"indent":6,"parameters":[]},{"code":0,"indent":6,"parameters":[]},{"code":412,"indent":5,"parameters":[]},{"code":0,"indent":5,"parameters":[]},{"code":412,"indent":4,"parameters":[]},{"code":0,"indent":4,"parameters":[]},{"code":412,"indent":3,"parameters":[]},{"code":0,"indent":3,"parameters":[]},{"code":412,"indent":2,"parameters":[]},{"code":0,"indent":2,"parameters":[]},{"code":412,"indent":1,"parameters":[]},{"code":0,"indent":1,"parameters":[]},{"code":412,"indent":0,"parameters":[]},{"code":0,"indent":0,"parameters":[]}],"moveFrequency":3,"moveRoute":{"list":[{"code":0,"parameters":[]}],"repeat":true,"skippable":false,"wait":false},"moveSpeed":4,"moveType":1,"priorityType":1,"stepAnime":false,"through":false,"trigger":0,"walkAnime":true},{"conditions":{"actorId":1,"actorValid":false,"itemId":1,"itemValid":false,"selfSwitchCh":"A","selfSwitchValid":true,"switch1Id":1,"switch1Valid":false,"switch2Id":1,"switch2Valid":false,"variableId":1,"variableValid":false,"variableValue":0},"directionFix":false,"image":{"characterIndex":0,"characterName":"","direction":2,"pattern":0,"tileId":0},"list":[{"code":0,"indent":0,"parameters":[]}],"moveFrequency":3,"moveRoute":{"list":[{"code":0,"parameters":[]}],"repeat":true,"skippable":false,"wait":false},"moveSpeed":3,"moveType":0,"priorityType":0,"stepAnime":false,"through":false,"trigger":0,"walkAnime":true}],"x":10,"y":6},
{"id":13,"name":"EV013","note":"","pages":[{"conditions":{"actorId":1,"actorValid":false,"itemId":1,"itemValid":false,"selfSwitchCh":"A","selfSwitchValid":false,"switch1Id":12,"switch1Valid":true,"switch2Id":1,"switch2Valid":false,"variableId":1,"variableValid":false,"variableValue":0},"directionFix":false,"image":{"tileId":0,"characterName":"Nature","direction":2,"pattern":1,"characterIndex":2},"list":[{"code":111,"indent":0,"parameters":[0,12,0]},{"code":101,"indent":1,"parameters":["",0,1,1]},{"code":401,"indent":1,"parameters":["Ayam ditangkap (+1)!"]},{"code":123,"indent":1,"parameters":["A",0]},{"code":111,"indent":1,"parameters":[1,13,0,0,0]},{"code":122,"indent":2,"parameters":[13,13,0,0,1]},{"code":0,"indent":2,"parameters":[]},{"code":411,"indent":1,"parameters":[]},{"code":111,"indent":2,"parameters":[1,13,0,1,0]},{"code":122,"indent":3,"parameters":[13,13,0,0,2]},{"code":0,"indent":3,"parameters":[]},{"code":411,"indent":2,"parameters":[]},{"code":111,"indent":3,"parameters":[1,13,0,2,0]},{"code":122,"indent":4,"parameters":[13,13,0,0,3]},{"code":0,"indent":4,"parameters":[]},{"code":411,"indent":3,"parameters":[]},{"code":111,"indent":4,"parameters":[1,13,0,3,0]},{"code":122,"indent":5,"parameters":[13,13,0,0,4]},{"code":0,"indent":5,"parameters":[]},{"code":411,"indent":4,"parameters":[]},{"code":111,"indent":5,"parameters":[1,13,0,4,0]},{"code":122,"indent":6,"parameters":[13,13,0,0,5]},{"code":0,"indent":6,"parameters":[]},{"code":411,"indent":5,"parameters":[]},{"code":111,"indent":6,"parameters":[1,13,0,5,0]},{"code":122,"indent":7,"parameters":[13,13,0,0,6]},{"code":101,"indent":7,"parameters":["",0,1,1]},{"code":401,"indent":7,"parameters":["Ayam sudah ditangkap semua!"]},{"code":0,"indent":7,"parameters":[]},{"code":411,"indent":6,"parameters":[]},{"code":0,"indent":7,"parameters":[]},{"code":412,"indent":6,"parameters":[]},{"code":0,"indent":6,"parameters":[]},{"code":412,"indent":5,"parameters":[]},{"code":0,"indent":5,"parameters":[]},{"code":412,"indent":4,"parameters":[]},{"code":0,"indent":4,"parameters":[]},{"code":412,"indent":3,"parameters":[]},{"code":0,"indent":3,"parameters":[]},{"code":412,"indent":2,"parameters":[]},{"code":0,"indent":2,"parameters":[]},{"code":412,"indent":1,"parameters":[]},{"code":0,"indent":1,"parameters":[]},{"code":412,"indent":0,"parameters":[]},{"code":0,"indent":0,"parameters":[]}],"moveFrequency":3,"moveRoute":{"list":[{"code":0,"parameters":[]}],"repeat":true,"skippable":false,"wait":false},"moveSpeed":4,"moveType":1,"priorityType":1,"stepAnime":false,"through":false,"trigger":0,"walkAnime":true},{"conditions":{"actorId":1,"actorValid":false,"itemId":1,"itemValid":false,"selfSwitchCh":"A","selfSwitchValid":true,"switch1Id":1,"switch1Valid":false,"switch2Id":1,"switch2Valid":false,"variableId":1,"variableValid":false,"variableValue":0},"directionFix":false,"image":{"characterIndex":0,"characterName":"","direction":2,"pattern":0,"tileId":0},"list":[{"code":0,"indent":0,"parameters":[]}],"moveFrequency":3,"moveRoute":{"list":[{"code":0,"parameters":[]}],"repeat":true,"skippable":false,"wait":false},"moveSpeed":3,"moveType":0,"priorityType":0,"stepAnime":false,"through":false,"trigger":0,"walkAnime":true}],"x":3,"y":11},
{"id":14,"name":"EV014","note":"","pages":[{"conditions":{"actorId":1,"actorValid":false,"itemId":1,"itemValid":false,"selfSwitchCh":"A","selfSwitchValid":false,"switch1Id":12,"switch1Valid":true,"switch2Id":1,"switch2Valid":false,"variableId":1,"variableValid":false,"variableValue":0},"directionFix":false,"image":{"tileId":0,"characterName":"Nature","direction":2,"pattern":1,"characterIndex":2},"list":[{"code":111,"indent":0,"parameters":[0,12,0]},{"code":101,"indent":1,"parameters":["",0,1,1]},{"code":401,"indent":1,"parameters":["Ayam ditangkap (+1)!"]},{"code":123,"indent":1,"parameters":["A",0]},{"code":111,"indent":1,"parameters":[1,13,0,0,0]},{"code":122,"indent":2,"parameters":[13,13,0,0,1]},{"code":0,"indent":2,"parameters":[]},{"code":411,"indent":1,"parameters":[]},{"code":111,"indent":2,"parameters":[1,13,0,1,0]},{"code":122,"indent":3,"parameters":[13,13,0,0,2]},{"code":0,"indent":3,"parameters":[]},{"code":411,"indent":2,"parameters":[]},{"code":111,"indent":3,"parameters":[1,13,0,2,0]},{"code":122,"indent":4,"parameters":[13,13,0,0,3]},{"code":0,"indent":4,"parameters":[]},{"code":411,"indent":3,"parameters":[]},{"code":111,"indent":4,"parameters":[1,13,0,3,0]},{"code":122,"indent":5,"parameters":[13,13,0,0,4]},{"code":0,"indent":5,"parameters":[]},{"code":411,"indent":4,"parameters":[]},{"code":111,"indent":5,"parameters":[1,13,0,4,0]},{"code":122,"indent":6,"parameters":[13,13,0,0,5]},{"code":0,"indent":6,"parameters":[]},{"code":411,"indent":5,"parameters":[]},{"code":111,"indent":6,"parameters":[1,13,0,5,0]},{"code":122,"indent":7,"parameters":[13,13,0,0,6]},{"code":101,"indent":7,"parameters":["",0,1,1]},{"code":401,"indent":7,"parameters":["Ayam sudah ditangkap semua!"]},{"code":0,"indent":7,"parameters":[]},{"code":411,"indent":6,"parameters":[]},{"code":0,"indent":7,"parameters":[]},{"code":412,"indent":6,"parameters":[]},{"code":0,"indent":6,"parameters":[]},{"code":412,"indent":5,"parameters":[]},{"code":0,"indent":5,"parameters":[]},{"code":412,"indent":4,"parameters":[]},{"code":0,"indent":4,"parameters":[]},{"code":412,"indent":3,"parameters":[]},{"code":0,"indent":3,"parameters":[]},{"code":412,"indent":2,"parameters":[]},{"code":0,"indent":2,"parameters":[]},{"code":412,"indent":1,"parameters":[]},{"code":0,"indent":1,"parameters":[]},{"code":412,"indent":0,"parameters":[]},{"code":0,"indent":0,"parameters":[]}],"moveFrequency":3,"moveRoute":{"list":[{"code":0,"parameters":[]}],"repeat":true,"skippable":false,"wait":false},"moveSpeed":4,"moveType":1,"priorityType":1,"stepAnime":false,"through":false,"trigger":0,"walkAnime":true},{"conditions":{"actorId":1,"actorValid":false,"itemId":1,"itemValid":false,"selfSwitchCh":"A","selfSwitchValid":true,"switch1Id":1,"switch1Valid":false,"switch2Id":1,"switch2Valid":false,"variableId":1,"variableValid":false,"variableValue":0},"directionFix":false,"image":{"characterIndex":0,"characterName":"","direction":2,"pattern":0,"tileId":0},"list":[{"code":0,"indent":0,"parameters":[]}],"moveFrequency":3,"moveRoute":{"list":[{"code":0,"parameters":[]}],"repeat":true,"skippable":false,"wait":false},"moveSpeed":3,"moveType":0,"priorityType":0,"stepAnime":false,"through":false,"trigger":0,"walkAnime":true}],"x":11,"y":14},
{"id":15,"name":"EV015","note":"","pages":[{"conditions":{"actorId":1,"actorValid":false,"itemId":1,"itemValid":false,"selfSwitchCh":"A","selfSwitchValid":false,"switch1Id":12,"switch1Valid":true,"switch2Id":1,"switch2Valid":false,"variableId":1,"variableValid":false,"variableValue":0},"directionFix":false,"image":{"tileId":0,"characterName":"Nature","direction":2,"pattern":1,"characterIndex":2},"list":[{"code":111,"indent":0,"parameters":[0,12,0]},{"code":101,"indent":1,"parameters":["",0,1,1]},{"code":401,"indent":1,"parameters":["Ayam ditangkap (+1)!"]},{"code":123,"indent":1,"parameters":["A",0]},{"code":111,"indent":1,"parameters":[1,13,0,0,0]},{"code":122,"indent":2,"parameters":[13,13,0,0,1]},{"code":0,"indent":2,"parameters":[]},{"code":411,"indent":1,"parameters":[]},{"code":111,"indent":2,"parameters":[1,13,0,1,0]},{"code":122,"indent":3,"parameters":[13,13,0,0,2]},{"code":0,"indent":3,"parameters":[]},{"code":411,"indent":2,"parameters":[]},{"code":111,"indent":3,"parameters":[1,13,0,2,0]},{"code":122,"indent":4,"parameters":[13,13,0,0,3]},{"code":0,"indent":4,"parameters":[]},{"code":411,"indent":3,"parameters":[]},{"code":111,"indent":4,"parameters":[1,13,0,3,0]},{"code":122,"indent":5,"parameters":[13,13,0,0,4]},{"code":0,"indent":5,"parameters":[]},{"code":411,"indent":4,"parameters":[]},{"code":111,"indent":5,"parameters":[1,13,0,4,0]},{"code":122,"indent":6,"parameters":[13,13,0,0,5]},{"code":0,"indent":6,"parameters":[]},{"code":411,"indent":5,"parameters":[]},{"code":111,"indent":6,"parameters":[1,13,0,5,0]},{"code":122,"indent":7,"parameters":[13,13,0,0,6]},{"code":101,"indent":7,"parameters":["",0,1,1]},{"code":401,"indent":7,"parameters":["Ayam sudah ditangkap semua!"]},{"code":0,"indent":7,"parameters":[]},{"code":411,"indent":6,"parameters":[]},{"code":0,"indent":7,"parameters":[]},{"code":412,"indent":6,"parameters":[]},{"code":0,"indent":6,"parameters":[]},{"code":412,"indent":5,"parameters":[]},{"code":0,"indent":5,"parameters":[]},{"code":412,"indent":4,"parameters":[]},{"code":0,"indent":4,"parameters":[]},{"code":412,"indent":3,"parameters":[]},{"code":0,"indent":3,"parameters":[]},{"code":412,"indent":2,"parameters":[]},{"code":0,"indent":2,"parameters":[]},{"code":412,"indent":1,"parameters":[]},{"code":0,"indent":1,"parameters":[]},{"code":412,"indent":0,"parameters":[]},{"code":0,"indent":0,"parameters":[]}],"moveFrequency":3,"moveRoute":{"list":[{"code":0,"parameters":[]}],"repeat":true,"skippable":false,"wait":false},"moveSpeed":4,"moveType":1,"priorityType":1,"stepAnime":false,"through":false,"trigger":0,"walkAnime":true},{"conditions":{"actorId":1,"actorValid":false,"itemId":1,"itemValid":false,"selfSwitchCh":"A","selfSwitchValid":true,"switch1Id":1,"switch1Valid":false,"switch2Id":1,"switch2Valid":false,"variableId":1,"variableValid":false,"variableValue":0},"directionFix":false,"image":{"characterIndex":0,"characterName":"","direction":2,"pattern":0,"tileId":0},"list":[{"code":0,"indent":0,"parameters":[]}],"moveFrequency":3,"moveRoute":{"list":[{"code":0,"parameters":[]}],"repeat":true,"skippable":false,"wait":false},"moveSpeed":3,"moveType":0,"priorityType":0,"stepAnime":false,"through":false,"trigger":0,"walkAnime":true}],"x":6,"y":11},
{"id":16,"name":"EV016","note":"","pages":[{"conditions":{"actorId":1,"actorValid":false,"itemId":1,"itemValid":false,"selfSwitchCh":"A","selfSwitchValid":false,"switch1Id":1,"switch1Valid":false,"switch2Id":1,"switch2Valid":false,"variableId":1,"variableValid":false,"variableValue":0},"directionFix":false,"image":{"characterIndex":0,"characterName":"","direction":2,"pattern":0,"tileId":0},"list":[{"code":352,"indent":0,"parameters":[]},{"code":0,"indent":0,"parameters":[]}],"moveFrequency":3,"moveRoute":{"list":[{"code":0,"parameters":[]}],"repeat":true,"skippable":false,"wait":false},"moveSpeed":3,"moveType":0,"priorityType":1,"stepAnime":false,"through":false,"trigger":0,"walkAnime":true}],"x":18,"y":16}
]
}